<?xml version="1.0" standalone="no"?>
<!DOCTYPE svg PUBLIC "-//W3C//DTD SVG 20010904//EN"
 "http://www.w3.org/TR/2001/REC-SVG-20010904/DTD/svg10.dtd">
<svg version="1.0" xmlns="http://www.w3.org/2000/svg"
 width="357.000000pt" height="129.000000pt" viewBox="0 0 357.000000 129.000000"
 preserveAspectRatio="xMidYMid meet">
<metadata>
Created by potrace 1.15, written by Peter Selinger 2001-2017
</metadata>
<g transform="translate(0.000000,129.000000) scale(0.100000,-0.100000)"
fill="#000000" stroke="none">
<path d="M1913 466 c-32 -15 -55 -48 -67 -98 -4 -18 -13 -28 -25 -28 -11 0
-21 -9 -25 -22 -10 -40 -7 -58 12 -58 18 0 18 -4 1 -107 -26 -155 -29 -143 41
-143 33 0 60 3 60 8 0 4 9 59 20 122 11 63 20 116 20 118 0 1 17 2 39 2 35 0
39 3 45 31 9 47 9 48 -34 51 -39 3 -39 4 -27 28 13 26 40 31 84 16 19 -6 23
-3 29 29 4 21 2 41 -4 47 -17 17 -133 20 -169 4z"/>
<path d="M66 433 c-8 -28 -66 -379 -66 -403 0 -19 4 -21 58 -18 l57 3 9 56 9
56 35 -39 c36 -40 98 -78 126 -78 9 0 18 11 21 25 3 14 7 36 10 48 4 19 -3 29
-32 48 -65 43 -64 50 5 127 34 39 62 73 62 76 0 3 -28 6 -63 6 l-63 0 -38 -50
c-21 -27 -39 -50 -41 -50 -1 0 4 33 11 73 17 94 17 103 -2 121 -22 23 -91 21
-98 -1z"/>
<path d="M723 335 c-18 -8 -33 -10 -33 -5 0 6 -26 10 -58 10 l-59 0 -22 -137
c-13 -76 -25 -150 -28 -165 l-5 -28 60 0 c70 0 65 -7 82 115 14 93 30 125 65
125 30 0 32 -17 10 -140 -8 -47 -15 -88 -15 -92 0 -5 27 -8 60 -8 68 0 61 -10
81 120 13 88 30 120 63 120 33 0 35 -11 19 -105 -7 -44 -13 -93 -13 -108 0
-28 0 -28 57 -25 l58 3 20 131 c23 144 20 174 -21 193 -38 17 -105 13 -140 -8
-29 -18 -31 -18 -53 0 -28 22 -82 24 -128 4z"/>
<path d="M1391 339 c-54 -10 -57 -13 -64 -62 -5 -34 -4 -38 11 -32 43 16 146
35 163 30 44 -14 14 -39 -66 -55 -90 -18 -145 -47 -161 -86 -20 -48 -17 -72
12 -101 23 -23 31 -25 94 -21 75 4 85 9 95 50 7 26 6 26 -41 25 -39 -2 -49 1
-52 16 -4 18 30 36 92 51 28 7 28 6 22 -26 -3 -18 -8 -52 -12 -76 l-7 -42 61
0 60 0 11 63 c26 150 34 215 28 231 -16 40 -134 57 -246 35z"/>
<path d="M2129 338 l-57 -10 -5 -41 c-3 -23 -4 -43 -3 -44 1 -2 25 4 52 12 54
16 130 20 138 6 10 -15 -17 -29 -88 -45 -93 -22 -134 -43 -152 -78 -36 -69 6
-130 88 -132 62 -1 98 11 108 37 8 21 9 21 9 -5 1 -27 3 -28 59 -28 l59 0 22
135 c12 74 20 143 16 154 -14 44 -119 61 -246 39z"/>
<path d="M2843 335 c-18 -8 -33 -10 -33 -5 0 6 -26 10 -58 10 l-59 0 -22 -137
c-13 -76 -25 -150 -28 -165 l-5 -28 61 0 c69 0 60 -14 85 129 9 46 20 89 26
96 17 21 50 25 57 8 5 -13 -7 -121 -24 -205 l-5 -28 60 0 c69 0 65 -7 83 115
13 93 30 125 63 125 33 0 35 -13 20 -105 -7 -44 -13 -92 -13 -107 -1 -27 1
-28 49 -28 37 0 52 4 58 18 15 28 46 246 39 273 -12 49 -114 66 -173 30 -29
-18 -31 -18 -53 0 -28 22 -82 24 -128 4z"/>
<path d="M3317 340 c-20 -4 -39 -9 -41 -11 -7 -8 -26 -72 -22 -76 2 -2 29 3
62 12 67 17 103 19 124 5 23 -16 -10 -37 -79 -51 -31 -6 -75 -19 -98 -29 -70
-31 -95 -109 -48 -155 20 -21 34 -25 79 -25 66 0 103 13 109 37 3 12 5 8 6
-10 1 -28 2 -28 59 -25 l57 3 23 129 c13 71 21 140 17 153 -3 15 -18 30 -40
39 -36 15 -142 17 -208 4z"/>
<path d="M400 337 c0 -3 -11 -72 -25 -154 -14 -81 -25 -154 -25 -160 0 -9 18
-13 59 -13 l59 0 11 63 c28 158 35 228 25 245 -7 11 -27 18 -58 20 -25 2 -46
1 -46 -1z"/>
<path d="M1145 328 c-2 -7 -15 -80 -28 -161 -18 -114 -21 -150 -12 -153 7 -3
34 -4 61 -2 l49 3 24 142 c23 138 24 144 6 163 -21 23 -93 28 -100 8z"/>
<path d="M2436 327 c-7 -21 -46 -281 -46 -299 0 -15 10 -18 59 -18 l59 0 12
82 c6 46 16 96 22 111 11 29 53 57 86 57 17 0 32 32 32 70 0 14 -220 11 -224
-3z"/>
</g>
</svg>
